{
    "%vlocity_namespace%__Active__c": true,
    "%vlocity_namespace%__Level__c": 1,
    "%vlocity_namespace%__OmniScriptId__c": {
        "Name": "Create Contract",
        "VlocityDataPackType": "VlocityMatchingKeyObject",
        "VlocityMatchingRecordSourceKey": "%vlocity_namespace%__OmniScript__c/Contract/Create Contract/English",
        "VlocityRecordSObjectType": "%vlocity_namespace%__OmniScript__c"
    },
    "%vlocity_namespace%__Order__c": 2,
    "%vlocity_namespace%__ParentElementId__c": {
        "%vlocity_namespace%__OmniScriptId__c": "%vlocity_namespace%__OmniScript__c/Contract/Create Contract/English",
        "Name": "ReplaceTheContract",
        "VlocityDataPackType": "VlocityMatchingKeyObject",
        "VlocityMatchingRecordSourceKey": "%vlocity_namespace%__Element__c/%vlocity_namespace%__OmniScript__c/Contract/Create Contract/English/ReplaceTheContract",
        "VlocityRecordSObjectType": "%vlocity_namespace%__Element__c"
    },
    "%vlocity_namespace%__ParentElementName__c": "ReplaceTheContract",
    "%vlocity_namespace%__ParentElementType__c": "Step",
    "%vlocity_namespace%__PropertySet__c": {
        "HTMLTemplateId": "",
        "cancelLabel": "Cancel",
        "cancelMessage": "Are you sure?",
        "completeLabel": "Complete",
        "completeMessage": "Are you sure you want to complete the script?",
        "conditionType": "Hide if False",
        "controlWidth": 12,
        "currencySymbol": "$",
        "dataType": "Text",
        "dateFormat": "MM-dd-yyyy",
        "expression": "IF(AND(%selectedAddress% == null,%ContractRequestObj:DBBillingStreet%=='None', %ContractRequestObj:DBBillingCity%=='None',%ContractRequestObj:DBBillingProvince%=='None',%ContractRequestObj:DBBillingCountry%=='None'), '',IF(%selectedAddress% != null, CONCATENATE(%selectedAddress:Line1%,', ',%selectedAddress:City%,', ',%selectedAddress:ProvinceName%,', ',%selectedAddress:PostalCode%,', ',%selectedAddress:CountryName%),CONCATENATE(%ContractRequestObj:DBBillingStreet%,', ',%ContractRequestObj:DBBillingCity%,', ',%ContractRequestObj:DBBillingProvince%,', ',%ContractRequestObj:DBBillingCountry%)))",
        "hide": true,
        "hideGroupSep": false,
        "inputWidth": 12,
        "instruction": "",
        "knowledgeOptions": {
            "dataCategoryCriteria": "",
            "keyword": "",
            "language": "English",
            "publishStatus": "Online",
            "remoteTimeout": 30000
        },
        "label": "ReplaceAddressFormula",
        "mask": null,
        "nextLabel": "Next",
        "nextWidth": 3,
        "previousLabel": "Previous",
        "previousWidth": 3,
        "remoteClass": "",
        "remoteMethod": "",
        "remoteOptions": {
        },
        "remoteTimeout": 30000,
        "saveLabel": "Save for later",
        "saveMessage": "Are you sure you want to save it for later?",
        "show": null,
        "showInputWidth": false,
        "showPersistentComponent": [
            false,
            false
        ],
        "validationRequired": true
    },
    "%vlocity_namespace%__ReusableOmniScript__c": true,
    "%vlocity_namespace%__Type__c": "Formula",
    "CurrencyIsoCode": "CAD",
    "Name": "ReplaceAddressFormula",
    "VlocityDataPackType": "SObject",
    "VlocityRecordSObjectType": "%vlocity_namespace%__Element__c",
    "VlocityRecordSourceKey": "%vlocity_namespace%__Element__c/%vlocity_namespace%__OmniScript__c/Contract/Create Contract/English/ReplaceAddressFormula"
}