{
    "%vlocity_namespace%__Active__c": true,
    "%vlocity_namespace%__Level__c": 1,
    "%vlocity_namespace%__OmniScriptId__c": {
        "Name": "Create Contract",
        "VlocityDataPackType": "VlocityMatchingKeyObject",
        "VlocityMatchingRecordSourceKey": "%vlocity_namespace%__OmniScript__c/Contract/Create Contract/English",
        "VlocityRecordSObjectType": "%vlocity_namespace%__OmniScript__c"
    },
    "%vlocity_namespace%__Order__c": 4,
    "%vlocity_namespace%__ParentElementId__c": {
        "%vlocity_namespace%__OmniScriptId__c": "%vlocity_namespace%__OmniScript__c/Contract/Create Contract/English",
        "Name": "AmendTheContract",
        "VlocityDataPackType": "VlocityMatchingKeyObject",
        "VlocityMatchingRecordSourceKey": "%vlocity_namespace%__Element__c/%vlocity_namespace%__OmniScript__c/Contract/Create Contract/English/AmendTheContract",
        "VlocityRecordSObjectType": "%vlocity_namespace%__Element__c"
    },
    "%vlocity_namespace%__ParentElementName__c": "AmendTheContract",
    "%vlocity_namespace%__ParentElementType__c": "Step",
    "%vlocity_namespace%__PropertySet__c": {
        "HTMLTemplateId": "",
        "cancelLabel": "Cancel",
        "cancelMessage": "Are you sure?",
        "completeLabel": "Complete",
        "completeMessage": "Are you sure you want to complete the script?",
        "conditionType": "Hide if False",
        "controlWidth": 12,
        "knowledgeOptions": {
            "dataCategoryCriteria": "",
            "keyword": "",
            "language": "English",
            "publishStatus": "Online",
            "remoteTimeout": 30000
        },
        "label": "<p>\n<script>// <![CDATA[\nvar num = parseFloat(document.getElementById(\"totaldeal\").innerHTML).toFixed(2);  \ndocument.getElementById(\"totaldeal\").innerHTML = num;\n// ]]></script>\n</p>\n<div class=\"contr-reviewHeadingText frg-body-font-27px color-purple\">Review contract request details:<br />\n<table class=\"contr-reviewTable\">\n<tbody>\n<tr id=\"creditCheckId\">\n<td class=\"creditCheckText frg-body-font-21px\">Credit Check Status</td>\n<td class=\"contr-creditCheck frg-body-font-14px\">%OrderInfo:CreditStatus%</td>\n</tr>\n<tr id=\"contractId\">\n<td class=\"contractValueText frg-body-font-17px\">Total contract value</td>\n<td class=\"contr-contractValue frg-body-font-14px\">$ <span id=\"totaldeal\">%totalDealValue%</span></td>\n</tr>\n<tr id=\"billingId\">\n<td class=\"billingText frg-body-font-17px\">&nbsp;Billing Address</td>\n<td class=\"contr-billingValue frg-body-font-14px\">%AmendAddressFormula%</td>\n</tr>\n<tr id=\"customerSignorId\">\n<td class=\"customerSignerText frg-body-font-17px\">Customer signor</td>\n<td class=\"contr-customerSignerValue frg-body-font-14px\">%ComputedCustomerSignor%</td>\n</tr>\n<tr id=\"telusId\">\n<td class=\"contr-tellusAppText frg-body-font-17px\">TELUS Approver</td>\n<td class=\"contr-tellusApp frg-body-font-14px\">%ComputedTelusSignor%</td>\n</tr>\n<tr id=\"accountNameId\">\n<td class=\"contr-accountNameText frg-body-font-17px\">Account Name</td>\n<td class=\"contr-accountName frg-body-font-14px\">%OrderInfo:AccountName%</td>\n</tr>\n<tr id=\"orderId\">\n<td class=\"orderNumText frg-body-font-17px\">Order Number</td>\n<td class=\"contr-orderNum frg-body-font-14px\">%OrderInfo:OrderNumber%</td>\n</tr>\n<tr id=\"requestId\">\n<td class=\"contr-requestTypeText frg-body-font-17px\">Request Type</td>\n<td class=\"contr-requestType frg-body-font-14px\">%ContractRequestObj:TypeOfContract%</td>\n</tr>\n<tr id=\"existingContract\">\n<td class=\"contr-accountOwnerText frg-body-font-17px\">Original Contract</td>\n<!--<td class=\"accountOwner frg-body-font-14px\">%ContractRequestObj:ExistingeContractId%</td>-->\n<td class=\"contr-accountName\"><!--<p id=\"contractNumber\" class=\"form-control btn btn-link ng-binding\" onclick=\"submitOrderOpenSubtab2('%ContractRequestObj:ExistingeContractId%','Contract')\">%ExistingeContractNumber%</p>-->\n<p id=\"contractNumber\" class=\"form-control btn btn-link ng-binding\" onclick=\"submitOrderOpenSubtab2('%ExisitingContractDetails:ContractId%','Contract')\">%ExistingeContractNumber%</p>\n</td>\n</tr>\n</tbody>\n</table>\n</div>",
        "nextLabel": "Next",
        "nextWidth": 3,
        "previousLabel": "Previous",
        "previousWidth": 3,
        "remoteOptions": {
        },
        "remoteTimeout": 30000,
        "saveLabel": "Save for later",
        "saveMessage": "Are you sure you want to save it for later?",
        "show": null,
        "showPersistentComponent": [
            false,
            false
        ],
        "validationRequired": true
    },
    "%vlocity_namespace%__ReusableOmniScript__c": true,
    "%vlocity_namespace%__Type__c": "Headline",
    "CurrencyIsoCode": "CAD",
    "Name": "AmendContractRequestDetails",
    "VlocityDataPackType": "SObject",
    "VlocityRecordSObjectType": "%vlocity_namespace%__Element__c",
    "VlocityRecordSourceKey": "%vlocity_namespace%__Element__c/%vlocity_namespace%__OmniScript__c/Contract/Create Contract/English/AmendContractRequestDetails"
}