{
    "%vlocity_namespace%__Active__c": true,
    "%vlocity_namespace%__Level__c": 1,
    "%vlocity_namespace%__OmniScriptId__c": {
        "Name": "Create Contract",
        "VlocityDataPackType": "VlocityMatchingKeyObject",
        "VlocityMatchingRecordSourceKey": "%vlocity_namespace%__OmniScript__c/Contract/Create Contract/English",
        "VlocityRecordSObjectType": "%vlocity_namespace%__OmniScript__c"
    },
    "%vlocity_namespace%__Order__c": 6,
    "%vlocity_namespace%__ParentElementId__c": {
        "%vlocity_namespace%__OmniScriptId__c": "%vlocity_namespace%__OmniScript__c/Contract/Create Contract/English",
        "Name": "AmendTheContract",
        "VlocityDataPackType": "VlocityMatchingKeyObject",
        "VlocityMatchingRecordSourceKey": "%vlocity_namespace%__Element__c/%vlocity_namespace%__OmniScript__c/Contract/Create Contract/English/AmendTheContract",
        "VlocityRecordSObjectType": "%vlocity_namespace%__Element__c"
    },
    "%vlocity_namespace%__ParentElementName__c": "AmendTheContract",
    "%vlocity_namespace%__ParentElementType__c": "Step",
    "%vlocity_namespace%__PropertySet__c": {
        "HTMLTemplateId": "",
        "cancelLabel": "Cancel",
        "cancelMessage": "Are you sure?",
        "completeLabel": "Complete",
        "completeMessage": "Are you sure you want to complete the script?",
        "conditionType": "Hide if False",
        "controlWidth": 12,
        "knowledgeOptions": {
            "dataCategoryCriteria": "",
            "keyword": "",
            "language": "English",
            "publishStatus": "Online",
            "remoteTimeout": 30000
        },
        "label": "<div class=\"contr-noteText frg-body-font-15px\">Clicking &lsquo;Next&rsquo; will add the selected items as an Amendment to the selected eContract.</div>",
        "nextLabel": "Next",
        "nextWidth": 3,
        "previousLabel": "Previous",
        "previousWidth": 3,
        "remoteOptions": {
        },
        "remoteTimeout": 30000,
        "saveLabel": "Save for later",
        "saveMessage": "Are you sure you want to save it for later?",
        "show": null,
        "showPersistentComponent": [
            false,
            false
        ],
        "validationRequired": true
    },
    "%vlocity_namespace%__ReusableOmniScript__c": true,
    "%vlocity_namespace%__Type__c": "Headline",
    "CurrencyIsoCode": "CAD",
    "Name": "AmendHeadlineNote",
    "VlocityDataPackType": "SObject",
    "VlocityRecordSObjectType": "%vlocity_namespace%__Element__c",
    "VlocityRecordSourceKey": "%vlocity_namespace%__Element__c/%vlocity_namespace%__OmniScript__c/Contract/Create Contract/English/AmendHeadlineNote"
}