{
    "%vlocity_namespace%__Active__c": true,
    "%vlocity_namespace%__Level__c": 1,
    "%vlocity_namespace%__OmniScriptId__c": {
        "Name": "Create Contract",
        "VlocityDataPackType": "VlocityMatchingKeyObject",
        "VlocityMatchingRecordSourceKey": "%vlocity_namespace%__OmniScript__c/Contract/Create Contract/English",
        "VlocityRecordSObjectType": "%vlocity_namespace%__OmniScript__c"
    },
    "%vlocity_namespace%__Order__c": 1,
    "%vlocity_namespace%__ParentElementId__c": {
        "%vlocity_namespace%__OmniScriptId__c": "%vlocity_namespace%__OmniScript__c/Contract/Create Contract/English",
        "Name": "AmendOption",
        "VlocityDataPackType": "VlocityMatchingKeyObject",
        "VlocityMatchingRecordSourceKey": "%vlocity_namespace%__Element__c/%vlocity_namespace%__OmniScript__c/Contract/Create Contract/English/AmendOption",
        "VlocityRecordSObjectType": "%vlocity_namespace%__Element__c"
    },
    "%vlocity_namespace%__ParentElementName__c": "AmendOption",
    "%vlocity_namespace%__ParentElementType__c": "Step",
    "%vlocity_namespace%__PropertySet__c": {
        "HTMLTemplateId": "OC_ContractAmendTypeRadio.html",
        "accessibleInFutureSteps": false,
        "conditionType": "Hide if False",
        "controlWidth": 12,
        "controllingField": {
            "element": "",
            "source": "",
            "type": ""
        },
        "enableCaption": true,
        "help": false,
        "helpText": "",
        "hide": false,
        "horizontalMode": false,
        "label": "Amend Contract Option",
        "optionHeight": 100,
        "optionSource": {
            "source": "",
            "type": ""
        },
        "optionWidth": 100,
        "options": [
            {
                "name": "Yes",
                "value": "Yes"
            },
            {
                "name": "No",
                "value": "No"
            }
        ],
        "readOnly": false,
        "repeat": false,
        "repeatClone": false,
        "required": false,
        "show": {
            "group": {
                "operator": "AND",
                "rules": [
                    {
                        "condition": "=",
                        "data": "Amend",
                        "field": "action"
                    }
                ]
            }
        }
    },
    "%vlocity_namespace%__ReusableOmniScript__c": true,
    "%vlocity_namespace%__Type__c": "Radio",
    "CurrencyIsoCode": "CAD",
    "Name": "AmendContractOption",
    "VlocityDataPackType": "SObject",
    "VlocityRecordSObjectType": "%vlocity_namespace%__Element__c",
    "VlocityRecordSourceKey": "%vlocity_namespace%__Element__c/%vlocity_namespace%__OmniScript__c/Contract/Create Contract/English/AmendContractOption"
}