{
    "ContextId": "801c000000033DUAAY",
    "ContractRequestObj": {
        "CustomerSignor": "003c000000mm2cJAAQ",
        "TelusSignor": "00540000003LIfEAAW"
    },
    "ContractSignor": {
        "ComputedCustomerSignor": "adharsh",
        "ContractLanguage": "French",
        "CustomerSignor": null,
        "CustomerSignorRequired": true,
        "CustomerSignorSelected": true
    },
    "DBCustomerSignor": {
        "LastName": "adharsh"
    },
    "DBTelusSignor": {
        "Name": "Howard Robinson"
    },
    "ExisitingContractDetails": {
        "ContractId": "800c0000000NP3YAAW",
        "ContractNumber": "00075060"
    },
    "OrderContact": [
        {
            "Active": false,
            "Email": "user3@yopmail.com",
            "Id": "003c000000n08gIAAQ",
            "LastModifiedDate": "2017-05-31T09:55:51.000Z",
            "Name": "User3 3",
            "Phone": "111211111",
            "PreferedLang": "English",
            "Title": "Test"
        },
        {
            "Active": true,
            "Email": "adh@test.mail.com",
            "Id": "003c000000n08g3AAA",
            "LastModifiedDate": "2017-05-23T21:39:12.000Z",
            "Name": "Test123 123",
            "Phone": "11111",
            "PreferedLang": "English"
        },
        {
            "Active": true,
            "Id": "003c000000mm2cJAAQ",
            "LastModifiedDate": "2017-05-04T04:21:41.000Z",
            "Name": "adharsh",
            "Phone": "11111111111111"
        }
    ],
    "OrderInfo": {
        "AccountId": "001c00000194M9jAAE",
        "AccountName": "RCIDNAME 0002949416",
        "CreatedDate": "2017-05-04T04:25:47.000Z",
        "CustomerSignedBy": "003c000000n08gIAAQ",
        "MRC": 730,
        "NRC": 0,
        "OrderNumber": "OR-00010559",
        "TotalAmount": 0
    },
    "RequestType": "New Contract",
    "TypeofContract": {
        "ContractRequestIdFromURL": "a5Oc00000008l5B",
        "ContractType": "Standard",
        "CustomerSigned": "003c000000n08gIAAQ"
    },
    "exisitingContractID": "xxannan",
    "id": "a8Qc00000008WHrEAM",
    "selectedCustomerContact": [
        {
            "Active": true,
            "Id": "003c000000mm2cJAAQ",
            "LastModifiedDate": "2017-05-04T04:21:41.000Z",
            "Name": "adharsh",
            "Phone": "11111111111111",
            "vlcSelected": true
        }
    ],
    "testContextId": "801c000000033DUAAY",
    "timeStamp": "2017-06-08T03:33:29.082Z",
    "userName": "adharsh@vlocity.com.adharsh",
    "userProfile": "System Admin TEAM",
    "vlcPersistentComponent": {
    },
    "vlcTimeTracking": {
        "ExtractContractRequest": 1059,
        "GetOrderInfo": 1654,
        "OmniScriptSessionToken": "b514b83e-c386-4141-97b2-b5503d97ca66",
        "SetCustomerSignor": 2,
        "TypeofContract": 6124
    }
}