[
    {
        "%vlocity_namespace%__FloorPrice__c": "",
        "%vlocity_namespace%__OverageCharge__c": "",
        "%vlocity_namespace%__OverageUOM__c": "",
        "%vlocity_namespace%__RecurringPrice__c": "",
        "%vlocity_namespace%__RecurringUOM__c": "",
        "Check_Equal__c": true,
        "CurrencyIsoCode": "CAD",
        "IsActive": true,
        "Name": "Seasonal Vacationer",
        "Pricebook2.Name": "Standard Price Book",
        "Pricebook2Id": {
            "Name": "Standard Price Book",
            "VlocityDataPackType": "VlocityLookupMatchingKeyObject",
            "VlocityLookupRecordSourceKey": "Pricebook2/Standard Price Book",
            "VlocityRecordSObjectType": "Pricebook2"
        },
        "Product2Id": {
            "%vlocity_namespace%__GlobalKey__c": null,
            "VlocityDataPackType": "VlocityMatchingKeyObject",
            "VlocityMatchingRecordSourceKey": "VlocityRecordSourceKey:01t40000004Inn3AAC",
            "VlocityRecordSObjectType": "Product2"
        },
        "UnitPrice": 0,
        "UseStandardPrice": false,
        "VlocityDataPackType": "SObject",
        "VlocityRecordSObjectType": "PricebookEntry",
        "VlocityRecordSourceKey": "PricebookEntry/Pricebook2/Standard Price Book/VlocityRecordSourceKey:01t40000004Inn3AAC",
        "X2_Year_Contract_Price__c": "",
        "orderMgmtId__c": ""
    }
]