[
    {
        "%vlocity_namespace%__FloorPrice__c": "",
        "%vlocity_namespace%__OverageCharge__c": "",
        "%vlocity_namespace%__OverageUOM__c": "",
        "%vlocity_namespace%__RecurringPrice__c": "",
        "%vlocity_namespace%__RecurringUOM__c": "",
        "Check_Equal__c": true,
        "CurrencyIsoCode": "CAD",
        "IsActive": false,
        "Name": "Google Pixel XL 32GB - Black - NOT IN USE",
        "Pricebook2.Name": "Standard Price Book",
        "Pricebook2Id": {
            "Name": "Standard Price Book",
            "VlocityDataPackType": "VlocityLookupMatchingKeyObject",
            "VlocityLookupRecordSourceKey": "Pricebook2/Standard Price Book",
            "VlocityRecordSObjectType": "Pricebook2"
        },
        "Product2.%vlocity_namespace%__GlobalKey__c": "8796db90-ddf7-b460-1563-f35da35de21a",
        "Product2Id": {
            "%vlocity_namespace%__GlobalKey__c": "8796db90-ddf7-b460-1563-f35da35de21a",
            "VlocityDataPackType": "VlocityMatchingKeyObject",
            "VlocityMatchingRecordSourceKey": "Product2/8796db90-ddf7-b460-1563-f35da35de21a",
            "VlocityRecordSObjectType": "Product2"
        },
        "ProductCode": "LGGPIXELXL32BK-Extra-NOTINUSE",
        "UnitPrice": 1050,
        "UseStandardPrice": false,
        "VlocityDataPackType": "SObject",
        "VlocityRecordSObjectType": "PricebookEntry",
        "VlocityRecordSourceKey": "PricebookEntry/Pricebook2/Standard Price Book/Product2/8796db90-ddf7-b460-1563-f35da35de21a",
        "X2_Year_Contract_Price__c": "",
        "orderMgmtId__c": ""
    }
]