[
    {
        "%vlocity_namespace%__FloorPrice__c": "",
        "%vlocity_namespace%__OverageCharge__c": "",
        "%vlocity_namespace%__OverageUOM__c": "",
        "%vlocity_namespace%__RecurringPrice__c": "",
        "%vlocity_namespace%__RecurringUOM__c": "",
        "Check_Equal__c": true,
        "CurrencyIsoCode": "CAD",
        "IsActive": true,
        "Name": "Apple iPhone 7 128GB Red",
        "Pricebook2.Name": "Standard Price Book",
        "Pricebook2Id": {
            "Name": "Standard Price Book",
            "VlocityDataPackType": "VlocityLookupMatchingKeyObject",
            "VlocityLookupRecordSourceKey": "Pricebook2/Standard Price Book",
            "VlocityRecordSObjectType": "Pricebook2"
        },
        "Product2.%vlocity_namespace%__GlobalKey__c": "19ec0fcf-b6c2-5326-2a72-6248d16dc28f",
        "Product2Id": {
            "%vlocity_namespace%__GlobalKey__c": "19ec0fcf-b6c2-5326-2a72-6248d16dc28f",
            "VlocityDataPackType": "VlocityMatchingKeyObject",
            "VlocityMatchingRecordSourceKey": "Product2/19ec0fcf-b6c2-5326-2a72-6248d16dc28f",
            "VlocityRecordSObjectType": "Product2"
        },
        "ProductCode": "LAI7128GBRD",
        "UnitPrice": 1055,
        "UseStandardPrice": false,
        "VlocityDataPackType": "SObject",
        "VlocityRecordSObjectType": "PricebookEntry",
        "VlocityRecordSourceKey": "PricebookEntry/Pricebook2/Standard Price Book/Product2/19ec0fcf-b6c2-5326-2a72-6248d16dc28f",
        "X2_Year_Contract_Price__c": "",
        "orderMgmtId__c": ""
    }
]