{
    "%vlocity_namespace%__Active__c": true,
    "%vlocity_namespace%__Level__c": 1,
    "%vlocity_namespace%__OmniScriptId__c": {
        "Name": "OCOM Order Capture",
        "VlocityDataPackType": "VlocityMatchingKeyObject",
        "VlocityMatchingRecordSourceKey": "%vlocity_namespace%__OmniScript__c/OCOM Order Capture/Order Flow/English",
        "VlocityRecordSObjectType": "%vlocity_namespace%__OmniScript__c"
    },
    "%vlocity_namespace%__Order__c": 14,
    "%vlocity_namespace%__ParentElementId__c": {
        "%vlocity_namespace%__OmniScriptId__c": "%vlocity_namespace%__OmniScript__c/OCOM Order Capture/Order Flow/English",
        "Name": "InstallDateRange",
        "VlocityDataPackType": "VlocityMatchingKeyObject",
        "VlocityMatchingRecordSourceKey": "%vlocity_namespace%__Element__c/%vlocity_namespace%__OmniScript__c/OCOM Order Capture/Order Flow/English/InstallDateRange",
        "VlocityRecordSObjectType": "%vlocity_namespace%__Element__c"
    },
    "%vlocity_namespace%__ParentElementName__c": "InstallDateRange",
    "%vlocity_namespace%__ParentElementType__c": "Step",
    "%vlocity_namespace%__PropertySet__c": {
        "HTMLTemplateId": "OCOM_vlcValidationDatev2MoveOut.html",
        "controlWidth": 12,
        "hideLabel": true,
        "label": "Messaging 1",
        "messages": [
            {
                "active": true,
                "text": "",
                "type": "Success",
                "value": true
            },
            {
                "active": true,
                "text": "Sorry, you cannot select a date in the past.",
                "type": "Requirement",
                "value": false
            }
        ],
        "show": {
            "group": {
                "operator": "AND",
                "rules": [
                    {
                        "condition": "=",
                        "data": "true",
                        "field": "isMoveOrder"
                    },
                    {
                        "condition": "=",
                        "data": "false",
                        "field": "isManualBooking"
                    }
                ]
            }
        },
        "validateExpression": {
            "group": {
                "operator": "AND",
                "rules": [
                    {
                        "condition": "=",
                        "data": "false",
                        "field": "isMoveOutDateInThePast?"
                    }
                ]
            }
        }
    },
    "%vlocity_namespace%__ReusableOmniScript__c": false,
    "%vlocity_namespace%__Type__c": "Validation",
    "CurrencyIsoCode": "CAD",
    "Name": "DateCannotBeInThePastMoveOut",
    "VlocityDataPackType": "SObject",
    "VlocityRecordSObjectType": "%vlocity_namespace%__Element__c",
    "VlocityRecordSourceKey": "%vlocity_namespace%__Element__c/%vlocity_namespace%__OmniScript__c/OCOM Order Capture/Order Flow/English/DateCannotBeInThePastMoveOut"
}