{
    "%vlocity_namespace%__Active__c": true,
    "%vlocity_namespace%__Level__c": 1,
    "%vlocity_namespace%__OmniScriptId__c": {
        "Name": "OCOM Order Capture",
        "VlocityDataPackType": "VlocityMatchingKeyObject",
        "VlocityMatchingRecordSourceKey": "%vlocity_namespace%__OmniScript__c/OCOM Order Capture/Order Flow/English",
        "VlocityRecordSObjectType": "%vlocity_namespace%__OmniScript__c"
    },
    "%vlocity_namespace%__Order__c": 8,
    "%vlocity_namespace%__ParentElementId__c": {
        "%vlocity_namespace%__OmniScriptId__c": "%vlocity_namespace%__OmniScript__c/OCOM Order Capture/Order Flow/English",
        "Name": "onsiteContactInfo",
        "VlocityDataPackType": "VlocityMatchingKeyObject",
        "VlocityMatchingRecordSourceKey": "%vlocity_namespace%__Element__c/%vlocity_namespace%__OmniScript__c/OCOM Order Capture/Order Flow/English/onsiteContactInfo",
        "VlocityRecordSObjectType": "%vlocity_namespace%__Element__c"
    },
    "%vlocity_namespace%__ParentElementName__c": "onsiteContactInfo",
    "%vlocity_namespace%__ParentElementType__c": "Step",
    "%vlocity_namespace%__PropertySet__c": {
        "controlWidth": 4,
        "dataJSON": false,
        "label": null,
        "show": null,
        "text": "<div style=\"&quot;background-color: #F5F6F7;\">\n<p><span style=\"color: #8c68a6;\">Please confirm that this person:</span></p>\n<div><span style=\"color: #8c68a6;\">1. Has access to the panel</span></div>\n<div><span style=\"color: #8c68a6;\">2. Has phone knowledge</span></div>\n<div><span style=\"color: #8c68a6;\">3. Has IT knowledge&nbsp;</span></div>\n<div><span style=\"color: #8c68a6;\">4. Has username/password needed after internet access / connectivity changes</span></div>\n</div>"
    },
    "%vlocity_namespace%__ReusableOmniScript__c": false,
    "%vlocity_namespace%__Type__c": "Text Block",
    "CurrencyIsoCode": "CAD",
    "Name": "onSiteContactNotes",
    "VlocityDataPackType": "SObject",
    "VlocityRecordSObjectType": "%vlocity_namespace%__Element__c",
    "VlocityRecordSourceKey": "%vlocity_namespace%__Element__c/%vlocity_namespace%__OmniScript__c/OCOM Order Capture/Order Flow/English/onSiteContactNotes"
}