{
    "%vlocity_namespace%__Active__c": true,
    "%vlocity_namespace%__Level__c": 0,
    "%vlocity_namespace%__OmniScriptId__c": {
        "Name": "OCOM Order Capture",
        "VlocityDataPackType": "VlocityMatchingKeyObject",
        "VlocityMatchingRecordSourceKey": "%vlocity_namespace%__OmniScript__c/OCOM Order Capture/Order Flow/English",
        "VlocityRecordSObjectType": "%vlocity_namespace%__OmniScript__c"
    },
    "%vlocity_namespace%__Order__c": 7,
    "%vlocity_namespace%__PropertySet__c": {
        "HTMLTemplateId": "",
        "controlWidth": 5,
        "elementValueMap": {
            "installDateDetails": "%installDate%",
            "installDateDetailsMoveOut": "%installDateMoveOut%",
            "intallDateDetailsText": "%installDate%",
            "serviceAddressDetails": "%serviceAddress%",
            "serviceAddressDetailsMoveIn": "%serviceAddressMoveIn%",
            "serviceAddressDetailsMoveOut": "%serviceAddressMoveOut%"
        },
        "label": "Set Values 2",
        "message": {
        },
        "show": null,
        "showPersistentComponent": [
            false,
            false
        ],
        "ssm": false,
        "validationRequired": "None",
        "wpm": false
    },
    "%vlocity_namespace%__ReusableOmniScript__c": false,
    "%vlocity_namespace%__Type__c": "Set Values",
    "CurrencyIsoCode": "CAD",
    "Name": "Set Values 2",
    "VlocityDataPackType": "SObject",
    "VlocityRecordSObjectType": "%vlocity_namespace%__Element__c",
    "VlocityRecordSourceKey": "%vlocity_namespace%__Element__c/%vlocity_namespace%__OmniScript__c/OCOM Order Capture/Order Flow/English/Set Values 2"
}