[
    {
        "%vlocity_namespace%__FloorPrice__c": "",
        "%vlocity_namespace%__OverageCharge__c": "",
        "%vlocity_namespace%__OverageUOM__c": "",
        "%vlocity_namespace%__RecurringPrice__c": "",
        "%vlocity_namespace%__RecurringUOM__c": "",
        "Check_Equal__c": true,
        "CurrencyIsoCode": "CAD",
        "IsActive": true,
        "Name": "Google Pixel 2 XL 64GB White",
        "Pricebook2.Name": "Standard Price Book",
        "Pricebook2Id": {
            "Name": "Standard Price Book",
            "VlocityDataPackType": "VlocityLookupMatchingKeyObject",
            "VlocityLookupRecordSourceKey": "Pricebook2/Standard Price Book",
            "VlocityRecordSObjectType": "Pricebook2"
        },
        "Product2.%vlocity_namespace%__GlobalKey__c": "38b18f31-b4de-06ca-59e5-c3989cba63ad",
        "Product2Id": {
            "%vlocity_namespace%__GlobalKey__c": "38b18f31-b4de-06ca-59e5-c3989cba63ad",
            "VlocityDataPackType": "VlocityMatchingKeyObject",
            "VlocityMatchingRecordSourceKey": "Product2/38b18f31-b4de-06ca-59e5-c3989cba63ad",
            "VlocityRecordSObjectType": "Product2"
        },
        "ProductCode": "LGGPIXEL2XL64WH",
        "UnitPrice": 1160,
        "UseStandardPrice": false,
        "VlocityDataPackType": "SObject",
        "VlocityRecordSObjectType": "PricebookEntry",
        "VlocityRecordSourceKey": "PricebookEntry/Pricebook2/Standard Price Book/Product2/38b18f31-b4de-06ca-59e5-c3989cba63ad",
        "X2_Year_Contract_Price__c": "",
        "orderMgmtId__c": ""
    }
]