{
    "%vlocity_namespace%__ApprovedBy__c": "",
    "%vlocity_namespace%__ApprovedOn__c": "",
    "%vlocity_namespace%__AttributeDefaultValues__c": "",
    "%vlocity_namespace%__AttributeRules__c": "",
    "%vlocity_namespace%__CategoryData__c": "",
    "%vlocity_namespace%__ChangeDetectorImplementation__c": "",
    "%vlocity_namespace%__ClassId__c": "",
    "%vlocity_namespace%__EffectiveDate__c": "",
    "%vlocity_namespace%__EndDate__c": "",
    "%vlocity_namespace%__GlobalKey__c": "",
    "%vlocity_namespace%__HeaderData__c": "",
    "%vlocity_namespace%__HelpText__c": "",
    "%vlocity_namespace%__IsConfigurable__c": false,
    "%vlocity_namespace%__IsLocationDependent__c": false,
    "%vlocity_namespace%__IsNotAssetizable__c": false,
    "%vlocity_namespace%__IsOrderable__c": false,
    "%vlocity_namespace%__JeopardySafetyIntervalUnit__c": "",
    "%vlocity_namespace%__JeopardySafetyInterval__c": "",
    "%vlocity_namespace%__Modification__c": "",
    "%vlocity_namespace%__ObjectTypeId__c": "",
    "%vlocity_namespace%__ParentClassId__c": "",
    "%vlocity_namespace%__ProductChildItem__c": "REFURB-HTC-S720-WIRELESS-EVDO-PDA_ProductChildItems.json",
    "%vlocity_namespace%__ProductSpecId__c": "",
    "%vlocity_namespace%__ProductTemplateProductId__c": "",
    "%vlocity_namespace%__Scope__c": "",
    "%vlocity_namespace%__SpecificationType__c": "",
    "%vlocity_namespace%__StandardPremium__c": "",
    "%vlocity_namespace%__Status__c": "",
    "%vlocity_namespace%__SubType__c": "",
    "%vlocity_namespace%__TimeToLive__c": "",
    "%vlocity_namespace%__TrackAsAgreement__c": false,
    "%vlocity_namespace%__Type__c": "",
    "%vlocity_namespace%__VendorAccountId__c": "",
    "Applicable_Provinces__c": "",
    "BPC_1__c": "",
    "BPC_2__c": "",
    "BPC_3_CODE__c": "",
    "BPC_3__c": "",
    "Bundle_Flag__c": false,
    "Bundle_Type__c": "",
    "COMP_INCLUSION__c": "",
    "CanUseQuantitySchedule": true,
    "CanUseRevenueSchedule": true,
    "Catalog__c": "",
    "Category__c": "",
    "Child_Services__c": "",
    "ConE_List_MRC__c": "",
    "ConE_List_NRC__c": "",
    "ConE_Maximum_MRC__c": "",
    "ConE_Maximum_NRC__c": "",
    "ConE_Minimum_MRC__c": "",
    "ConE_Minimum_NRC__c": "",
    "ConE_Parent_Product_Key__c": "",
    "Configuration_Category__c": "",
    "Contract_Group__c": "",
    "Contract_Type__c": "",
    "Core_Product_Ids__c": "",
    "CurrencyIsoCode": "CAD",
    "Customer_Friendly_Name__c": "",
    "DATE_Loaded__c": "",
    "DMAPP__AM_Solution__c": "",
    "Data_Credits__c": false,
    "Demo_Assigned_To__c": "",
    "Demo_Expected_End_Date__c": "",
    "Demo_Returned_Date__c": "",
    "Demo_Start_Date__c": "",
    "Demo_Type__c": "",
    "Dependency__c": "",
    "Description": "REFURB HTC S720 WIRELESS EVDO PDA",
    "DetailedDescription__c": "",
    "Device_Type__c": "",
    "DisplayUrl": "",
    "Display_Order__c": "",
    "Down_Payment__c": "",
    "EPP1__c": "",
    "EPP2__c": "",
    "EPP3_CODE__c": "",
    "EPP3__c": "",
    "ESN_IMEI__c": "",
    "Easy_Payment_Amount__c": "",
    "ExternalDataSourceId": "",
    "ExternalId": "",
    "External_ID_PROD__c": "",
    "Family": "",
    "Finance_Alignment__c": "",
    "Full_Price__c": "",
    "In_Stock__c": "",
    "IncludeQuoteContract__c": true,
    "Installation_Duration__c": "",
    "IsActive": true,
    "Is_Bundle_Discount__c": false,
    "Is_Service_Item__c": false,
    "Job_Type__c": "",
    "LRN__Tags__c": "",
    "Lead_Time__c": "",
    "Location_Dependency__c": "",
    "MARGIN__c": "",
    "MTM__c": "",
    "Name": "REFURB HTC S720 WIRELESS EVDO PDA",
    "Network__c": "",
    "NumberOfQuantityInstallments": "",
    "NumberOfRevenueInstallments": "",
    "OCOM_Bookable__c": "",
    "OCOM_Downgradable__c": "",
    "OCOM_Move_Strategy__c": "",
    "OCOM_Promotion_Applies_To__c": "",
    "OCOM_Reservable__c": "",
    "OCOM_Shippable__c": "",
    "OCOM_Upgradable__c": "",
    "Opp_Prod_Qty_Required__c": false,
    "P3MS_Master_Product__c": "",
    "PORTFOLIO_CODE__c": "",
    "PORTFOLIO__c": "",
    "PricebookEntry": "REFURB-HTC-S720-WIRELESS-EVDO-PDA_StandardPricebookEntry.json",
    "ProductCode": "",
    "ProductSpecification__c": "",
    "Product_Category_Code__c": "",
    "Product_Family_Code__c": "",
    "Product_Family__c": "",
    "Product_Grouping__c": "",
    "Product_Language_Support__c": "",
    "Product_Type__c": "WIRELESS",
    "Provisioning_Summary_Fields__c": "",
    "QuantityInstallmentPeriod": "",
    "QuantityScheduleType": "",
    "QuantityUnitOfMeasure": "",
    "REVENUE_TYPE__c": "",
    "RN_1__c": "",
    "RN_2__c": "",
    "RN_3__c": "",
    "RN_4__c": "",
    "RP_Additional_Data__c": "",
    "RP_Additional_MMS__c": "",
    "RP_Additional_Minutes__c": "",
    "RP_Additional_SMS__c": "",
    "RP_Applications__c": "",
    "RP_Canada_to_Canada_LD__c": "",
    "RP_Canada_to_US_LD__c": "",
    "RP_Data_Rate__c": "",
    "RP_Data_Roaming__c": "",
    "RP_Included_Data__c": "",
    "RP_Included_Features_Other__c": "",
    "RP_Included_Features__c": "",
    "RP_Included_MMS__c": "",
    "RP_Included_Minutes__c": "",
    "RP_Included_SMS__c": "",
    "RP_International_Data_Roaming__c": "",
    "RP_International_MMS_Roaming__c": "",
    "RP_International_Roaming_Rate__c": "",
    "RP_International_SMS_Roaming__c": "",
    "RP_International_Voice_Roaming__c": "",
    "RP_MMS_Rate__c": "",
    "RP_Monthly_Plan_Rate__c": "",
    "RP_Parent_Rate_Plan__c": "",
    "RP_Plan_Category__c": "",
    "RP_Plan_Group__c": "",
    "RP_Plan_Sub_Type__c": "",
    "RP_Plan_Type__c": "",
    "RP_Region__c": "",
    "RP_SMS_Rate__c": "",
    "RP_SOC_Code__c": "",
    "RP_SOC_Status__c": "",
    "RP_Terms_and_Conditions__c": "",
    "RP_Type__c": "SMB Care Bundle",
    "RP_US_Data_Roaming__c": "",
    "RP_US_MMS_Roaming__c": "",
    "RP_US_Roaming_Rate__c": "",
    "RP_US_SMS_Roaming__c": "",
    "RP_US_Voice_Roaming__c": "",
    "RP_Voice_Rate__c": "",
    "RP_Voice_Roaming__c": "",
    "RWMS_Bundle_Name__c": "",
    "RecordTypeId": {
        "DeveloperName": "SMB_Care_Bundle",
        "SobjectType": "Product2",
        "VlocityDataPackType": "VlocityLookupMatchingKeyObject",
        "VlocityLookupRecordSourceKey": "RecordType/Product2/SMB_Care_Bundle",
        "VlocityRecordSObjectType": "RecordType"
    },
    "RelationshipType__c": "",
    "Reliable_Asset__c": false,
    "RevenueInstallmentPeriod": "",
    "RevenueScheduleType": "",
    "SBQQ__AssetConversion__c": "One per quote line",
    "SBQQ__BatchQuantity__c": "",
    "SBQQ__Component__c": false,
    "SBQQ__CompoundDiscountRate__c": "",
    "SBQQ__ConfigurationEvent__c": "",
    "SBQQ__ConfigurationFields__c": "",
    "SBQQ__ConfigurationFormTitle__c": "",
    "SBQQ__ConfigurationType__c": "",
    "SBQQ__ConfigurationValidator__c": "",
    "SBQQ__ConfiguredCodePattern__c": "",
    "SBQQ__CostEditable__c": false,
    "SBQQ__CustomConfigurationPage__c": "",
    "SBQQ__CustomConfigurationRequired__c": false,
    "SBQQ__DescriptionLocked__c": false,
    "SBQQ__DiscountSchedule__c": "",
    "SBQQ__DynamicPricingConstraint__c": "",
    "SBQQ__ExcludeFromMaintenance__c": false,
    "SBQQ__ExcludeFromOpportunity__c": false,
    "SBQQ__HasConfigurationAttributes__c": false,
    "SBQQ__Hidden__c": false,
    "SBQQ__HidePriceInSearchResults__c": false,
    "SBQQ__IncludeInMaintenance__c": false,
    "SBQQ__NewQuoteGroup__c": false,
    "SBQQ__NonDiscountable__c": false,
    "SBQQ__NonPartnerDiscountable__c": false,
    "SBQQ__OptionLayout__c": "",
    "SBQQ__OptionSelectionMethod__c": "Click",
    "SBQQ__Optional__c": false,
    "SBQQ__PriceEditable__c": false,
    "SBQQ__PricingMethodEditable__c": false,
    "SBQQ__PricingMethod__c": "List",
    "SBQQ__ProductPictureID__c": "",
    "SBQQ__QuantityEditable__c": true,
    "SBQQ__ReconfigurationDisabled__c": false,
    "SBQQ__RenewalProduct__c": "",
    "SBQQ__SortOrder__c": "",
    "SBQQ__Specifications__c": "",
    "SBQQ__SubscriptionBase__c": "",
    "SBQQ__SubscriptionCategory__c": "",
    "SBQQ__SubscriptionPercent__c": "",
    "SBQQ__SubscriptionPricing__c": "",
    "SBQQ__SubscriptionTerm__c": "",
    "SBQQ__Taxable__c": false,
    "SOC_Build_Prioirity__c": "",
    "SOC_Type__c": "",
    "SOLUTION_SET_1__c": "",
    "SOLUTION_SET_2__c": "",
    "SOLUTION_SET_3__c": "",
    "SPECIALIST__c": "",
    "Sellable__c": false,
    "Standard_Specialty__c": "",
    "Sterling_Item_ID__c": "PRES720-TL-W-DV",
    "Sterling_Item_Key__c": "20140210082934146819",
    "Sub_Category__c": "",
    "Summary_Category__c": "",
    "TARGET_RN_1A__c": "",
    "TARGET_RN_1__c": "",
    "TARGET_RN_2__c": "",
    "TARGET_RN_3__c": "",
    "TARGET_RN_4__c": "",
    "Technology__c": "",
    "Terms__c": "",
    "Unit_of_Measure__c": "EACH",
    "VLAdditionalConfigData__c": "",
    "VlocityDataPackType": "SObject",
    "VlocityRecordSObjectType": "Product2",
    "VlocityRecordSourceKey": "VlocityRecordSourceKey:01t40000004InfvAAC",
    "Wireless_Offer_Code__c": "",
    "X1_Year__c": "",
    "X2_Year__c": "",
    "X3_Year__c": "",
    "is_for_goto_team__c": false,
    "orderMgmtId__c": ""
}