{
    "%vlocity_namespace%__CalculationMatrixId__c": {
        "Name": "OCOM Text Multiple Price Matrix",
        "VlocityDataPackType": "VlocityMatchingKeyObject",
        "VlocityMatchingRecordSourceKey": "%vlocity_namespace%__CalculationMatrix__c/OCOM Text Multiple Price Matrix",
        "VlocityRecordSObjectType": "%vlocity_namespace%__CalculationMatrix__c"
    },
    "%vlocity_namespace%__CalculationMatrixId__r.Name": "OCOM Text Multiple Price Matrix",
    "%vlocity_namespace%__CalculationMatrixRow__c": "OCOM-Text-Multiple-Price-Matrix_Version_Rows.json",
    "%vlocity_namespace%__CurrentStatus__c": "Active",
    "%vlocity_namespace%__EndDateTime__c": "",
    "%vlocity_namespace%__GlobalKey__c": "",
    "%vlocity_namespace%__Priority__c": 1,
    "%vlocity_namespace%__StartDateTime__c": "2018-08-08T20:25:39.000Z",
    "%vlocity_namespace%__VersionNumber__c": 1,
    "CurrencyIsoCode": "CAD",
    "Name": "OCOM Text Multiple Price Matrix V1",
    "VlocityDataPackType": "SObject",
    "VlocityRecordSObjectType": "%vlocity_namespace%__CalculationMatrixVersion__c",
    "VlocityRecordSourceKey": "%vlocity_namespace%__CalculationMatrixVersion__c/OCOM Text Multiple Price Matrix V1"
}