[
    {
        "%vlocity_namespace%__DomainObjectAPIName__c": "json",
        "%vlocity_namespace%__DomainObjectCreationOrder__c": 0,
        "%vlocity_namespace%__DomainObjectFieldAPIName__c": "Order",
        "%vlocity_namespace%__FilterOperator__c": "=",
        "%vlocity_namespace%__FilterValue__c": "Id",
        "%vlocity_namespace%__InterfaceFieldAPIName__c": "Id",
        "%vlocity_namespace%__InterfaceObjectLookupOrder__c": 1,
        "%vlocity_namespace%__InterfaceObjectName__c": "Order",
        "%vlocity_namespace%__IsDisabled__c": false,
        "%vlocity_namespace%__IsRequiredForUpsert__c": false,
        "%vlocity_namespace%__LinkCreatedIndex__c": 0,
        "%vlocity_namespace%__MapId__c": "OC_GetRequestedDateCustoma7pc000000009YTAAYItem0",
        "%vlocity_namespace%__UpsertKey__c": false,
        "CurrencyIsoCode": "CAD",
        "Name": "OC_GetRequestedDate",
        "VlocityDataPackType": "SObject",
        "VlocityRecordSObjectType": "%vlocity_namespace%__DRMapItem__c"
    },
    {
        "%vlocity_namespace%__DomainObjectAPIName__c": "json",
        "%vlocity_namespace%__DomainObjectCreationOrder__c": 0,
        "%vlocity_namespace%__DomainObjectFieldAPIName__c": "MoveOutAddress",
        "%vlocity_namespace%__FilterOperator__c": "=",
        "%vlocity_namespace%__FilterValue__c": "Order:MoveOutServiceAddress__c",
        "%vlocity_namespace%__InterfaceFieldAPIName__c": "Id",
        "%vlocity_namespace%__InterfaceObjectLookupOrder__c": 2,
        "%vlocity_namespace%__InterfaceObjectName__c": "SMBCare_Address__c",
        "%vlocity_namespace%__IsDisabled__c": false,
        "%vlocity_namespace%__IsRequiredForUpsert__c": false,
        "%vlocity_namespace%__LinkCreatedIndex__c": 0,
        "%vlocity_namespace%__MapId__c": "OC_GetRequestedDateCustoma7pc000000009YTAAYItem1",
        "%vlocity_namespace%__UpsertKey__c": false,
        "CurrencyIsoCode": "CAD",
        "Name": "OC_GetRequestedDate",
        "VlocityDataPackType": "SObject",
        "VlocityRecordSObjectType": "%vlocity_namespace%__DRMapItem__c"
    },
    {
        "%vlocity_namespace%__DomainObjectAPIName__c": "json",
        "%vlocity_namespace%__DomainObjectCreationOrder__c": 1,
        "%vlocity_namespace%__DomainObjectFieldAPIName__c": "OrderId",
        "%vlocity_namespace%__InterfaceFieldAPIName__c": "Order:Id",
        "%vlocity_namespace%__IsDisabled__c": false,
        "%vlocity_namespace%__IsRequiredForUpsert__c": false,
        "%vlocity_namespace%__LinkCreatedIndex__c": 0,
        "%vlocity_namespace%__MapId__c": "OC_GetRequestedDateCustoma7pc000000009YTAAYItem4",
        "%vlocity_namespace%__UpsertKey__c": false,
        "CurrencyIsoCode": "CAD",
        "Name": "OC_GetRequestedDate",
        "VlocityDataPackType": "SObject",
        "VlocityRecordSObjectType": "%vlocity_namespace%__DRMapItem__c"
    },
    {
        "%vlocity_namespace%__DomainObjectAPIName__c": "json",
        "%vlocity_namespace%__DomainObjectCreationOrder__c": 1,
        "%vlocity_namespace%__DomainObjectFieldAPIName__c": "installDate",
        "%vlocity_namespace%__InterfaceFieldAPIName__c": "Order:RequestedDate__c",
        "%vlocity_namespace%__IsDisabled__c": false,
        "%vlocity_namespace%__IsRequiredForUpsert__c": false,
        "%vlocity_namespace%__LinkCreatedIndex__c": 0,
        "%vlocity_namespace%__MapId__c": "OC_GetRequestedDateCustoma7pc000000009YTAAYItem6",
        "%vlocity_namespace%__UpsertKey__c": false,
        "CurrencyIsoCode": "CAD",
        "Name": "OC_GetRequestedDate",
        "VlocityDataPackType": "SObject",
        "VlocityRecordSObjectType": "%vlocity_namespace%__DRMapItem__c"
    },
    {
        "%vlocity_namespace%__DomainObjectAPIName__c": "json",
        "%vlocity_namespace%__DomainObjectCreationOrder__c": 1,
        "%vlocity_namespace%__DomainObjectFieldAPIName__c": "installDateMoveOut",
        "%vlocity_namespace%__InterfaceFieldAPIName__c": "Order:RequestedDate__c",
        "%vlocity_namespace%__IsDisabled__c": false,
        "%vlocity_namespace%__IsRequiredForUpsert__c": false,
        "%vlocity_namespace%__LinkCreatedIndex__c": 0,
        "%vlocity_namespace%__MapId__c": "OC_GetRequestedDateCustoma7pc000000009YTAAYItem5",
        "%vlocity_namespace%__UpsertKey__c": false,
        "CurrencyIsoCode": "CAD",
        "Name": "OC_GetRequestedDate",
        "VlocityDataPackType": "SObject",
        "VlocityRecordSObjectType": "%vlocity_namespace%__DRMapItem__c"
    },
    {
        "%vlocity_namespace%__DomainObjectAPIName__c": "json",
        "%vlocity_namespace%__DomainObjectCreationOrder__c": 1,
        "%vlocity_namespace%__DomainObjectFieldAPIName__c": "onsiteTitle",
        "%vlocity_namespace%__InterfaceFieldAPIName__c": "Order:ContactTitle__c",
        "%vlocity_namespace%__IsDisabled__c": false,
        "%vlocity_namespace%__IsRequiredForUpsert__c": false,
        "%vlocity_namespace%__LinkCreatedIndex__c": 0,
        "%vlocity_namespace%__MapId__c": "OC_GetRequestedDateCustoma7pc000000009YTAAYItem3",
        "%vlocity_namespace%__UpsertKey__c": false,
        "CurrencyIsoCode": "CAD",
        "Name": "OC_GetRequestedDate",
        "VlocityDataPackType": "SObject",
        "VlocityRecordSObjectType": "%vlocity_namespace%__DRMapItem__c"
    },
    {
        "%vlocity_namespace%__DomainObjectAPIName__c": "json",
        "%vlocity_namespace%__DomainObjectCreationOrder__c": 1,
        "%vlocity_namespace%__DomainObjectFieldAPIName__c": "serviceAddress",
        "%vlocity_namespace%__InterfaceFieldAPIName__c": "Order:Service_Address_Text__c",
        "%vlocity_namespace%__IsDisabled__c": false,
        "%vlocity_namespace%__IsRequiredForUpsert__c": false,
        "%vlocity_namespace%__LinkCreatedIndex__c": 0,
        "%vlocity_namespace%__MapId__c": "OC_GetRequestedDateCustoma7pc000000009YTAAYItem7",
        "%vlocity_namespace%__UpsertKey__c": false,
        "CurrencyIsoCode": "CAD",
        "Name": "OC_GetRequestedDate",
        "VlocityDataPackType": "SObject",
        "VlocityRecordSObjectType": "%vlocity_namespace%__DRMapItem__c"
    },
    {
        "%vlocity_namespace%__DomainObjectAPIName__c": "json",
        "%vlocity_namespace%__DomainObjectCreationOrder__c": 1,
        "%vlocity_namespace%__DomainObjectFieldAPIName__c": "serviceAddressMoveIn",
        "%vlocity_namespace%__InterfaceFieldAPIName__c": "Order:Service_Address_Text__c",
        "%vlocity_namespace%__IsDisabled__c": false,
        "%vlocity_namespace%__IsRequiredForUpsert__c": false,
        "%vlocity_namespace%__LinkCreatedIndex__c": 0,
        "%vlocity_namespace%__MapId__c": "OC_GetRequestedDateCustoma7pc000000009YTAAYItem8",
        "%vlocity_namespace%__UpsertKey__c": false,
        "CurrencyIsoCode": "CAD",
        "Name": "OC_GetRequestedDate",
        "VlocityDataPackType": "SObject",
        "VlocityRecordSObjectType": "%vlocity_namespace%__DRMapItem__c"
    },
    {
        "%vlocity_namespace%__DomainObjectAPIName__c": "json",
        "%vlocity_namespace%__DomainObjectCreationOrder__c": 1,
        "%vlocity_namespace%__DomainObjectFieldAPIName__c": "serviceAddressMoveOut",
        "%vlocity_namespace%__InterfaceFieldAPIName__c": "MoveOutAddress:AddressText__c",
        "%vlocity_namespace%__IsDisabled__c": false,
        "%vlocity_namespace%__IsRequiredForUpsert__c": false,
        "%vlocity_namespace%__LinkCreatedIndex__c": 0,
        "%vlocity_namespace%__MapId__c": "OC_GetRequestedDateCustoma7pc000000009YTAAYItem2",
        "%vlocity_namespace%__UpsertKey__c": false,
        "CurrencyIsoCode": "CAD",
        "Name": "OC_GetRequestedDate",
        "VlocityDataPackType": "SObject",
        "VlocityRecordSObjectType": "%vlocity_namespace%__DRMapItem__c"
    }
]