[
    {
        "%vlocity_namespace%__FloorPrice__c": "",
        "%vlocity_namespace%__OverageCharge__c": "",
        "%vlocity_namespace%__OverageUOM__c": "",
        "%vlocity_namespace%__RecurringPrice__c": "",
        "%vlocity_namespace%__RecurringUOM__c": "",
        "Check_Equal__c": true,
        "CurrencyIsoCode": "CAD",
        "IsActive": true,
        "Name": "Samsung Galaxy S8 Black",
        "Pricebook2.Name": "Standard Price Book",
        "Pricebook2Id": {
            "Name": "Standard Price Book",
            "VlocityDataPackType": "VlocityLookupMatchingKeyObject",
            "VlocityLookupRecordSourceKey": "Pricebook2/Standard Price Book",
            "VlocityRecordSObjectType": "Pricebook2"
        },
        "Product2.%vlocity_namespace%__GlobalKey__c": "74fb3ccc-7580-d493-76ca-ff168fd4d9ea",
        "Product2Id": {
            "%vlocity_namespace%__GlobalKey__c": "74fb3ccc-7580-d493-76ca-ff168fd4d9ea",
            "VlocityDataPackType": "VlocityMatchingKeyObject",
            "VlocityMatchingRecordSourceKey": "Product2/74fb3ccc-7580-d493-76ca-ff168fd4d9ea",
            "VlocityRecordSObjectType": "Product2"
        },
        "ProductCode": "LSSGS8BK",
        "UnitPrice": 1035,
        "UseStandardPrice": false,
        "VlocityDataPackType": "SObject",
        "VlocityRecordSObjectType": "PricebookEntry",
        "VlocityRecordSourceKey": "PricebookEntry/Pricebook2/Standard Price Book/Product2/74fb3ccc-7580-d493-76ca-ff168fd4d9ea",
        "X2_Year_Contract_Price__c": "",
        "orderMgmtId__c": ""
    }
]