{
    "allowSaveForLater": true,
    "autoSaveOnStepNext": false,
    "cancelRedirectPageName": "OmniScriptCancelled",
    "cancelRedirectTemplateUrl": "vlcCancelled.html",
    "cancelSource": "%ContextId%",
    "cancelType": "SObject",
    "consoleTabLabel": "New",
    "elementTypeToHTMLTemplateMapping": {
    },
    "enableKnowledge": false,
    "knowledgeArticleTypeQueryFieldsMap": {
    },
    "message": {
    },
    "persistentComponent": [
        {
            "id": "vlcCart",
            "itemsKey": "cartItems",
            "label": "",
            "modalConfigurationSetting": {
                "modalController": "ModalProductCtrl",
                "modalHTMLTemplateId": "vlcProductConfig.html",
                "modalSize": "lg"
            },
            "postTransformBundle": "",
            "preTransformBundle": "",
            "remoteClass": "",
            "remoteMethod": "",
            "remoteOptions": {
                "postTransformBundle": "",
                "preTransformBundle": ""
            },
            "remoteTimeout": 30000,
            "render": false,
            "responseJSONNode": "",
            "responseJSONPath": "",
            "sendJSONNode": "",
            "sendJSONPath": ""
        },
        {
            "id": "vlcKnowledge",
            "itemsKey": "knowledgeItems",
            "label": "",
            "modalConfigurationSetting": {
                "modalController": "",
                "modalHTMLTemplateId": "",
                "modalSize": "lg"
            },
            "postTransformBundle": "",
            "preTransformBundle": "",
            "remoteClass": "",
            "remoteMethod": "",
            "remoteOptions": {
                "postTransformBundle": "",
                "preTransformBundle": ""
            },
            "remoteTimeout": 30000,
            "render": false
        }
    ],
    "saveContentEncoded": false,
    "saveExpireInDays": null,
    "saveForLaterRedirectPageName": "sflRedirect",
    "saveForLaterRedirectTemplateUrl": "vlcSaveForLaterAcknowledge.html",
    "saveNameTemplate": null,
    "saveObjectId": "%ContextId%",
    "seedDataJSON": {
        "OS_filter_IP": "Managed VPN",
        "OS_filter_MI": "Managed Internet",
        "OS_pricebook": "OCOM Pricebook",
        "OS_specification_IP": "9144766498613705695",
        "OS_specification_MI": "9144707759813657821"
    },
    "ssm": false,
    "timeTracking": true,
    "trackingCustomData": {
    },
    "visualforcePagesAvailableInPreview": {
    },
    "wpm": false
}