{
    "%vlocity_namespace%__Active__c": true,
    "%vlocity_namespace%__Level__c": 1,
    "%vlocity_namespace%__OmniScriptId__c": {
        "Name": "NaaS Order Capture",
        "VlocityDataPackType": "VlocityMatchingKeyObject",
        "VlocityMatchingRecordSourceKey": "%vlocity_namespace%__OmniScript__c/NaaS Order Capture/Order Flow/English",
        "VlocityRecordSObjectType": "%vlocity_namespace%__OmniScript__c"
    },
    "%vlocity_namespace%__Order__c": 1,
    "%vlocity_namespace%__ParentElementId__c": {
        "%vlocity_namespace%__OmniScriptId__c": "%vlocity_namespace%__OmniScript__c/NaaS Order Capture/Order Flow/English",
        "Name": "wfmCalendar",
        "VlocityDataPackType": "VlocityMatchingKeyObject",
        "VlocityMatchingRecordSourceKey": "%vlocity_namespace%__Element__c/%vlocity_namespace%__OmniScript__c/NaaS Order Capture/Order Flow/English/wfmCalendar",
        "VlocityRecordSObjectType": "%vlocity_namespace%__Element__c"
    },
    "%vlocity_namespace%__ParentElementName__c": "wfmCalendar",
    "%vlocity_namespace%__ParentElementType__c": "Step",
    "%vlocity_namespace%__PropertySet__c": {
        "HTMLTemplateId": "",
        "accessibleInFutureSteps": false,
        "callFrequency": 300,
        "conditionType": "Hide if False",
        "controlWidth": 3,
        "dataProcessorFunction": "",
        "debounceValue": 0,
        "editMode": false,
        "enableGoogleMapsAutocomplete": false,
        "enableLookup": false,
        "googleAddressCountry": "all",
        "googleMapsAPIKey": "",
        "googleTransformation": {
            "administrative_area_level_1": "",
            "country": "",
            "locality": "",
            "postal_code": "",
            "street": ""
        },
        "help": false,
        "helpText": "",
        "hideEditButton": true,
        "hideMap": true,
        "label": "Service address",
        "maxLength": 255,
        "minLength": 0,
        "newItemLabel": "",
        "readOnly": false,
        "required": false,
        "show": null,
        "typeAheadKey": "ServiceAddress"
    },
    "%vlocity_namespace%__ReusableOmniScript__c": false,
    "CurrencyIsoCode": "CAD",
    "Name": "ServiceAddressTypeAhead",
    "VlocityDataPackType": "SObject",
    "VlocityRecordSObjectType": "%vlocity_namespace%__Element__c",
    "VlocityRecordSourceKey": "%vlocity_namespace%__Element__c/%vlocity_namespace%__OmniScript__c/NaaS Order Capture/Order Flow/English/ServiceAddressTypeAhead"
}