{
    "%vlocity_namespace%__Active__c": false,
    "%vlocity_namespace%__Level__c": 1,
    "%vlocity_namespace%__OmniScriptId__c": {
        "Name": "NaaS Order Capture",
        "VlocityDataPackType": "VlocityMatchingKeyObject",
        "VlocityMatchingRecordSourceKey": "%vlocity_namespace%__OmniScript__c/NaaS Order Capture/Order Flow/English",
        "VlocityRecordSObjectType": "%vlocity_namespace%__OmniScript__c"
    },
    "%vlocity_namespace%__Order__c": 1,
    "%vlocity_namespace%__ParentElementId__c": {
        "%vlocity_namespace%__OmniScriptId__c": "%vlocity_namespace%__OmniScript__c/NaaS Order Capture/Order Flow/English",
        "Name": "BookingAppointmentSummary",
        "VlocityDataPackType": "VlocityMatchingKeyObject",
        "VlocityMatchingRecordSourceKey": "%vlocity_namespace%__Element__c/%vlocity_namespace%__OmniScript__c/NaaS Order Capture/Order Flow/English/BookingAppointmentSummary",
        "VlocityRecordSObjectType": "%vlocity_namespace%__Element__c"
    },
    "%vlocity_namespace%__ParentElementName__c": "BookingAppointmentSummary",
    "%vlocity_namespace%__ParentElementType__c": "Step",
    "%vlocity_namespace%__PropertySet__c": {
        "HTMLTemplateId": "naasConfigAppointmentDetails.html",
        "accessibleInFutureSteps": false,
        "cancelLabel": "Cancel",
        "cancelMessage": "Are you sure?",
        "completeLabel": "Complete",
        "completeMessage": "Are you sure you want to complete the script?",
        "conditionType": "Hide if False",
        "instruction": "",
        "knowledgeOptions": {
            "dataCategoryCriteria": "",
            "keyword": "",
            "language": "English",
            "publishStatus": "Online",
            "remoteTimeout": 30000
        },
        "label": "Configure Appointment Details",
        "nextLabel": "Next",
        "nextWidth": 3,
        "postTransformBundle": "",
        "preTransformBundle": "",
        "previousLabel": "Previous",
        "previousWidth": 3,
        "remoteClass": "",
        "remoteMethod": "",
        "remoteOptions": {
            "postTransformBundle": "",
            "preTransformBundle": ""
        },
        "remoteTimeout": 30000,
        "responseJSONNode": "",
        "responseJSONPath": "",
        "saveLabel": "Save for later",
        "saveMessage": "Are you sure you want to save it for later?",
        "sendJSONNode": "",
        "sendJSONPath": "",
        "show": null,
        "showPersistentComponent": [
            false,
            false
        ],
        "validationRequired": true
    },
    "%vlocity_namespace%__ReusableOmniScript__c": false,
    "%vlocity_namespace%__Type__c": "Input Block",
    "CurrencyIsoCode": "CAD",
    "Name": "Configure Appointment Details Multisite1",
    "VlocityDataPackType": "SObject",
    "VlocityRecordSObjectType": "%vlocity_namespace%__Element__c",
    "VlocityRecordSourceKey": "%vlocity_namespace%__Element__c/%vlocity_namespace%__OmniScript__c/NaaS Order Capture/Order Flow/English/Configure Appointment Details Multisite1"
}