{
    "%vlocity_namespace%__Active__c": true,
    "%vlocity_namespace%__Level__c": 1,
    "%vlocity_namespace%__OmniScriptId__c": {
        "Name": "NaaS Order Capture",
        "VlocityDataPackType": "VlocityMatchingKeyObject",
        "VlocityMatchingRecordSourceKey": "%vlocity_namespace%__OmniScript__c/NaaS Order Capture/Order Flow/English",
        "VlocityRecordSObjectType": "%vlocity_namespace%__OmniScript__c"
    },
    "%vlocity_namespace%__Order__c": 3,
    "%vlocity_namespace%__ParentElementId__c": {
        "%vlocity_namespace%__OmniScriptId__c": "%vlocity_namespace%__OmniScript__c/NaaS Order Capture/Order Flow/English",
        "Name": "billingAddress",
        "VlocityDataPackType": "VlocityMatchingKeyObject",
        "VlocityMatchingRecordSourceKey": "%vlocity_namespace%__Element__c/%vlocity_namespace%__OmniScript__c/NaaS Order Capture/Order Flow/English/billingAddress",
        "VlocityRecordSObjectType": "%vlocity_namespace%__Element__c"
    },
    "%vlocity_namespace%__ParentElementName__c": "billingAddress",
    "%vlocity_namespace%__ParentElementType__c": "Step",
    "%vlocity_namespace%__PropertySet__c": {
        "HTMLTemplateId": "",
        "controlWidth": 12,
        "dataJSON": false,
        "label": null,
        "show": null,
        "text": "<p><iframe id=\"BillingDetails\" class=\"container\" src=\"c__NAAS_BillingAddressPage?id=%ContextId%&amp;d=%BillingDateAdditionalDetails%\" name=\"Billing Summary\" width=\"300\" height=\"650\" frameborder=\"0\" marginwidth=\"0\" marginheight=\"0\" align=\"top\"></iframe></p>"
    },
    "%vlocity_namespace%__ReusableOmniScript__c": false,
    "%vlocity_namespace%__Type__c": "Text Block",
    "CurrencyIsoCode": "CAD",
    "Name": "BillingAddressBlock",
    "VlocityDataPackType": "SObject",
    "VlocityRecordSObjectType": "%vlocity_namespace%__Element__c",
    "VlocityRecordSourceKey": "%vlocity_namespace%__Element__c/%vlocity_namespace%__OmniScript__c/NaaS Order Capture/Order Flow/English/BillingAddressBlock"
}