[
    {
        "%vlocity_namespace%__FloorPrice__c": "",
        "%vlocity_namespace%__OverageCharge__c": "",
        "%vlocity_namespace%__OverageUOM__c": "",
        "%vlocity_namespace%__RecurringPrice__c": "",
        "%vlocity_namespace%__RecurringUOM__c": "",
        "Check_Equal__c": true,
        "CurrencyIsoCode": "CAD",
        "IsActive": true,
        "Name": "Apple iPhone SE 128GB Rose Gold",
        "Pricebook2.Name": "Standard Price Book",
        "Pricebook2Id": {
            "Name": "Standard Price Book",
            "VlocityDataPackType": "VlocityLookupMatchingKeyObject",
            "VlocityLookupRecordSourceKey": "Pricebook2/Standard Price Book",
            "VlocityRecordSObjectType": "Pricebook2"
        },
        "Product2.%vlocity_namespace%__GlobalKey__c": "902f8a53-4a8e-17ae-631a-14d422c83b7b",
        "Product2Id": {
            "%vlocity_namespace%__GlobalKey__c": "902f8a53-4a8e-17ae-631a-14d422c83b7b",
            "VlocityDataPackType": "VlocityMatchingKeyObject",
            "VlocityMatchingRecordSourceKey": "Product2/902f8a53-4a8e-17ae-631a-14d422c83b7b",
            "VlocityRecordSObjectType": "Product2"
        },
        "ProductCode": "LAISE128GBRG",
        "UnitPrice": 730,
        "UseStandardPrice": false,
        "VlocityDataPackType": "SObject",
        "VlocityRecordSObjectType": "PricebookEntry",
        "VlocityRecordSourceKey": "PricebookEntry/Pricebook2/Standard Price Book/Product2/902f8a53-4a8e-17ae-631a-14d422c83b7b",
        "X2_Year_Contract_Price__c": "",
        "orderMgmtId__c": ""
    }
]