[
    {
        "%vlocity_namespace%__FloorPrice__c": "",
        "%vlocity_namespace%__OverageCharge__c": "",
        "%vlocity_namespace%__OverageUOM__c": "",
        "%vlocity_namespace%__RecurringPrice__c": "",
        "%vlocity_namespace%__RecurringUOM__c": "",
        "Check_Equal__c": true,
        "CurrencyIsoCode": "CAD",
        "IsActive": true,
        "Name": "BlackBerry KEYone",
        "Pricebook2.Name": "Standard Price Book",
        "Pricebook2Id": {
            "Name": "Standard Price Book",
            "VlocityDataPackType": "VlocityLookupMatchingKeyObject",
            "VlocityLookupRecordSourceKey": "Pricebook2/Standard Price Book",
            "VlocityRecordSObjectType": "Pricebook2"
        },
        "Product2.%vlocity_namespace%__GlobalKey__c": "9972ebe1-a2c8-be8e-d9a5-2533e88eda7d",
        "Product2Id": {
            "%vlocity_namespace%__GlobalKey__c": "9972ebe1-a2c8-be8e-d9a5-2533e88eda7d",
            "VlocityDataPackType": "VlocityMatchingKeyObject",
            "VlocityMatchingRecordSourceKey": "Product2/9972ebe1-a2c8-be8e-d9a5-2533e88eda7d",
            "VlocityRecordSObjectType": "Product2"
        },
        "ProductCode": "LBBKEYONEBK",
        "UnitPrice": 700,
        "UseStandardPrice": false,
        "VlocityDataPackType": "SObject",
        "VlocityRecordSObjectType": "PricebookEntry",
        "VlocityRecordSourceKey": "PricebookEntry/Pricebook2/Standard Price Book/Product2/9972ebe1-a2c8-be8e-d9a5-2533e88eda7d",
        "X2_Year_Contract_Price__c": "",
        "orderMgmtId__c": ""
    }
]