{
    "%vlocity_namespace%__Active__c": true,
    "%vlocity_namespace%__Level__c": 0,
    "%vlocity_namespace%__OmniScriptId__c": {
        "Name": "Terminate Contract",
        "VlocityDataPackType": "VlocityMatchingKeyObject",
        "VlocityMatchingRecordSourceKey": "%vlocity_namespace%__OmniScript__c/Contract/Terminate/English",
        "VlocityRecordSObjectType": "%vlocity_namespace%__OmniScript__c"
    },
    "%vlocity_namespace%__Order__c": 8,
    "%vlocity_namespace%__PropertySet__c": {
        "bundle": "InactiveSelectedContractItems",
        "controlWidth": 12,
        "currencySymbol": "$",
        "dateFormat": "MM-dd-yyyy",
        "failureAbortLabel": "Abort",
        "failureAbortMessage": "Are you sure?",
        "failureNextLabel": "Continue",
        "hide": false,
        "hideGroupSep": false,
        "hideLabel": true,
        "inProgressMessage": "In Progress",
        "label": null,
        "messages": [
            {
                "active": true,
                "text": "",
                "type": "Success",
                "value": true
            },
            {
                "active": true,
                "text": "",
                "type": "Requirement",
                "value": false
            }
        ],
        "postMessage": "Done",
        "postTransformBundle": "",
        "redirectNextLabel": "Next",
        "redirectNextWidth": 3,
        "redirectPageName": "",
        "redirectPreviousLabel": "Previous",
        "redirectPreviousWidth": 3,
        "redirectTemplateUrl": "vlcAcknowledge.html",
        "remoteTimeout": 30000,
        "sendJSONNode": "",
        "sendJSONPath": "",
        "show": {
            "group": {
                "operator": "AND",
                "rules": [
                    {
                        "condition": "=",
                        "data": "Partially terminate lines in the contract",
                        "field": "Terminate Option"
                    }
                ]
            }
        },
        "showPersistentComponent": [
            false,
            false
        ],
        "validationRequired": "Submit"
    },
    "%vlocity_namespace%__ReusableOmniScript__c": false,
    "%vlocity_namespace%__Type__c": "DataRaptor Post Action",
    "CurrencyIsoCode": "CAD",
    "Name": "DataRaptor Post Action 2",
    "VlocityDataPackType": "SObject",
    "VlocityRecordSObjectType": "%vlocity_namespace%__Element__c",
    "VlocityRecordSourceKey": "%vlocity_namespace%__Element__c/%vlocity_namespace%__OmniScript__c/Contract/Terminate/English/DataRaptor Post Action 2"
}