[
    {
        "%vlocity_namespace%__FloorPrice__c": "",
        "%vlocity_namespace%__OverageCharge__c": "",
        "%vlocity_namespace%__OverageUOM__c": "",
        "%vlocity_namespace%__RecurringPrice__c": "",
        "%vlocity_namespace%__RecurringUOM__c": "",
        "Check_Equal__c": true,
        "CurrencyIsoCode": "CAD",
        "IsActive": true,
        "Name": "Apple iPhone SE 32GB Rose Gold",
        "Pricebook2.Name": "Standard Price Book",
        "Pricebook2Id": {
            "Name": "Standard Price Book",
            "VlocityDataPackType": "VlocityLookupMatchingKeyObject",
            "VlocityLookupRecordSourceKey": "Pricebook2/Standard Price Book",
            "VlocityRecordSObjectType": "Pricebook2"
        },
        "Product2.%vlocity_namespace%__GlobalKey__c": "13491f7c-d520-3fa6-50cc-984a52cc5ac7",
        "Product2Id": {
            "%vlocity_namespace%__GlobalKey__c": "13491f7c-d520-3fa6-50cc-984a52cc5ac7",
            "VlocityDataPackType": "VlocityMatchingKeyObject",
            "VlocityMatchingRecordSourceKey": "Product2/13491f7c-d520-3fa6-50cc-984a52cc5ac7",
            "VlocityRecordSObjectType": "Product2"
        },
        "ProductCode": "LAISE32GBRG",
        "UnitPrice": 590,
        "UseStandardPrice": false,
        "VlocityDataPackType": "SObject",
        "VlocityRecordSObjectType": "PricebookEntry",
        "VlocityRecordSourceKey": "PricebookEntry/Pricebook2/Standard Price Book/Product2/13491f7c-d520-3fa6-50cc-984a52cc5ac7",
        "X2_Year_Contract_Price__c": "",
        "orderMgmtId__c": ""
    }
]