{
    "%vlocity_namespace%__Author__c": "TELUS",
    "%vlocity_namespace%__CustomJavascript__c": "ocom_contract_customer_signor.js",
    "%vlocity_namespace%__Definition__c": "",
    "%vlocity_namespace%__Description__c": "8/23 changing styles",
    "%vlocity_namespace%__DisplayOn__c": "",
    "%vlocity_namespace%__ExternalID__c": "ocom_contract_customer_signor/5/TELUS/1503515135518",
    "%vlocity_namespace%__HTML__c": "ocom_contract_customer_signor.html",
    "%vlocity_namespace%__ParentID__c": "",
    "%vlocity_namespace%__SampleJson__c": "",
    "%vlocity_namespace%__Sass__c": "ocom_contract_customer_signor.scss",
    "%vlocity_namespace%__Type__c": "OmniScript",
    "%vlocity_namespace%__Version__c": 5,
    "CurrencyIsoCode": "CAD",
    "Name": "ocom_contract_customer_signor",
    "VlocityDataPackType": "SObject",
    "VlocityRecordSObjectType": "%vlocity_namespace%__VlocityUITemplate__c",
    "VlocityRecordSourceKey": "%vlocity_namespace%__VlocityUITemplate__c/ocom_contract_customer_signor"
}